{
  "timeZone": "Asia/Tokyo",
  "dependencies": {
    "enabledAdvancedServices": [{
      "userSymbol": "AnalyticsReporting",
      "serviceId": "analyticsreporting",
      "version": "v4"
    }, {
      "userSymbol": "Sheets",
      "serviceId": "sheets",
      "version": "v4"
    }, {
      "userSymbol": "Analytics",
      "serviceId": "analytics",
      "version": "v3"
    }],
    "libraries": [{
      "userSymbol": "SlackApp",
      "libraryId": "1on93YOYfSmV92R5q59NpKmsyWIQD8qnoLYk-gkQBI92C58SPyA2x1-bq",
      "version": "22",
      "developmentMode": true
    }]
  },
  "webapp": {
    "access": "MYSELF",
    "executeAs": "USER_DEPLOYING"
  },
  "exceptionLogging": "STACKDRIVER"
}